(Transform "BSplineTransform")
(NumberOfParameters 160)
(TransformParameters 1.065545 2.173055 1.571448 0.830879 -0.071664 -0.706168 -0.801596 -0.325128 1.365123 3.820846 0.293970 -0.136301 -1.479818 -2.987053 -2.091694 -0.293783 0.539224 4.820652 -0.086982 -2.195239 -4.628057 -4.592556 -2.591695 0.087250 -0.922608 0.917184 1.523858 -2.696645 -2.546731 -0.716520 -2.262350 0.105611 -1.713407 -3.033506 -0.753074 -5.121731 -4.139705 -2.937418 -2.083091 -0.035572 -0.848533 -2.787009 1.317332 4.312477 -5.131756 -2.194643 -1.843932 0.216958 2.747799 6.355694 -3.251887 -3.896143 -14.967238 -12.410249 -4.644820 0.698830 3.427199 3.978075 -2.425704 -10.764237 -10.776265 -15.366092 -6.314365 0.688520 1.852132 -1.464911 -3.954777 -11.798026 -8.960515 -8.752462 -4.973421 0.018172 0.636839 -1.039581 -2.916014 -4.741849 -4.378935 -2.838384 -1.881873 -0.275567 -0.848519 0.228987 1.671275 1.769973 1.704268 1.767287 1.341573 0.236374 -2.406671 1.245104 6.637463 2.148948 0.459152 -0.272539 -1.705530 -1.359579 -3.002532 -3.662713 1.861417 -3.515984 -3.053073 -3.133022 -4.892061 -2.634436 -1.826494 -4.495617 -2.352387 5.815928 0.145579 -12.133103 -8.787834 -2.459845 0.621472 1.113442 0.601846 15.318989 5.547459 -16.341726 -8.075180 -0.056290 2.846843 6.151412 0.320958 -2.695538 -0.274307 -2.319455 3.009703 3.878072 2.149477 -2.268061 -3.198260 -4.861281 1.214058 12.127807 14.628339 7.290111 0.498039 -5.891222 -4.456477 -0.197554 6.334726 17.872723 18.690078 8.475619 -0.400376 -4.643792 -2.558754 3.263711 7.196478 13.395309 15.851879 7.483451 -0.394585 0.016856 1.409325 3.773527 5.142430 5.300841 5.734231 2.630026)
(InitialTransformParametersFileName "./TransformParameters.1.txt")
(UseBinaryFormatForTransformationParameters "false")
(HowToCombineTransforms "Compose")

// Image specific
(FixedImageDimension 2)
(MovingImageDimension 2)
(FixedInternalImagePixelType "float")
(MovingInternalImagePixelType "float")
(Size 47 66)
(Index 0 0)
(Spacing 1.0000000000 1.0000000000)
(Origin 0.0000000000 0.0000000000)
(Direction 1.0000000000 0.0000000000 0.0000000000 1.0000000000)
(UseDirectionCosines "true")

// BSplineTransform specific
(GridSize 8 10)
(GridIndex 0 0)
(GridSpacing 11.3622394847 11.7036351966)
(GridOrigin -8.1453324391 -21.3974204302)
(GridDirection 1.0000000000 0.0000000000 0.0000000000 1.0000000000)
(BSplineTransformSplineOrder 3)
(UseCyclicTransform "false")

// ResampleInterpolator specific
(ResampleInterpolator "FinalBSplineInterpolator")
(FinalBSplineInterpolationOrder 3)

// Resampler specific
(Resampler "DefaultResampler")
(DefaultPixelValue 0.000000)
(ResultImageFormat "nii")
(ResultImagePixelType "float")
(CompressResultImage "false")
